\relax 
\@writefile{toc}{\contentsline {chapter}{\numberline {1}Introduction}{1}\protected@file@percent }
\@writefile{lof}{\addvspace {10\p@ }}
\@writefile{lot}{\addvspace {10\p@ }}
\@writefile{toc}{\contentsline {section}{\numberline {1.1}Contexte du stage}{1}\protected@file@percent }
\@writefile{toc}{\contentsline {section}{\numberline {1.2}Corpus}{1}\protected@file@percent }
\@writefile{toc}{\contentsline {part}{I\hspace  {1em}Travail r\IeC {\'e}alis\IeC {\'e}}{2}\protected@file@percent }
\@writefile{toc}{\contentsline {chapter}{\numberline {2}Extraction de ed,,}{3}\protected@file@percent }
\@writefile{lof}{\addvspace {10\p@ }}
\@writefile{lot}{\addvspace {10\p@ }}
\@writefile{toc}{\contentsline {section}{\numberline {2.1}Manipulation de fichiers}{3}\protected@file@percent }
\@writefile{toc}{\contentsline {section}{\numberline {2.2}La m\IeC {\'e}thode des words embedding}{3}\protected@file@percent }
\@writefile{toc}{\contentsline {section}{\numberline {2.3}Pond\IeC {\'e}ration des mots}{4}\protected@file@percent }
\@writefile{toc}{\contentsline {section}{\numberline {2.4}Passer d'un ensemble de mots \IeC {\`a} un descripteur unique}{5}\protected@file@percent }
\@writefile{toc}{\contentsline {subsection}{\numberline {2.4.1}Vecteur moyen}{5}\protected@file@percent }
\@writefile{toc}{\contentsline {subsection}{\numberline {2.4.2}Document Embedding}{5}\protected@file@percent }
\@writefile{toc}{\contentsline {subsection}{\numberline {2.4.3}Word Embedding clustering}{5}\protected@file@percent }
\@writefile{toc}{\contentsline {subsection}{\numberline {2.4.4}Word Embedding par section}{6}\protected@file@percent }
\@writefile{toc}{\contentsline {section}{\numberline {2.5}M\IeC {\'e}thode de comparaison des r\IeC {\'e}sultat}{7}\protected@file@percent }
\@writefile{toc}{\contentsline {chapter}{\numberline {3}Groupement de vid\IeC {\'e}o en arbre}{8}\protected@file@percent }
\@writefile{lof}{\addvspace {10\p@ }}
\@writefile{lot}{\addvspace {10\p@ }}
\@writefile{toc}{\contentsline {subsection}{\numberline {3.0.1}contexte}{8}\protected@file@percent }
\@writefile{toc}{\contentsline {subsection}{\numberline {3.0.2}programmes et formats utilis\IeC {\'e}}{8}\protected@file@percent }
